@startwbs
+ Generate Site
++ PreProcess
+++ Create Empty Site
+++ Collect Functions
++++ Collect Template Functions
+++++_ Template Fct. Param: Page Hiccup
++++ Collect Theme Functions [todo]
++++ Collect Page Functions [todo: make them functions]
' We would want several things here; mainly, the pages, but also site metadata etc.
' - I have to think what makes most sense; we could give it the whole site atom (or just pages) but that
'   could lead to infinite recursion
+++++_ Page Fct. Param:\npages (only metadata?),\nsite metadata, etc [todo]
++ Process
+++ Create pages hiccup
' I think in Zola, themes are simply different templates - that would make sense for us as well!
+++ Themes? [todo]
+++ Create HTML via\npages hiccup & templates
++ PostProcess
+++ Write pages to directory
@endwbs
